^C:\USERS\KICKY\DOCUMENTS\CPP PROJECTS\DOUBLYLINKEDLISTSTART\LINKEDLIST\STDAFX.CPP
/c /Zi /nologo /W3 /WX- /diagnostics:classic /sdl /O2 /Oi /Oy- /GL /D WIN32 /D NDEBUG /D _CONSOLE /D _LIB /D _UNICODE /D UNICODE /Gm- /EHsc /MD /GS /Gy /fp:precise /Zc:wchar_t /Zc:forScope /Zc:inline /Yc"stdafx.h" /Fp"RELEASE\LINKEDLIST.PCH" /Fo"RELEASE\\" /Fd"RELEASE\VC141.PDB" /Gd /TP /analyze- C:\USERS\KICKY\DOCUMENTS\CPP PROJECTS\DOUBLYLINKEDLISTSTART\LINKEDLIST\STDAFX.CPP
^C:\USERS\KICKY\DOCUMENTS\CPP PROJECTS\DOUBLYLINKEDLISTSTART\LINKEDLIST\LINKEDLIST.CPP
/c /Zi /nologo /W3 /WX- /diagnostics:classic /sdl /O2 /Oi /Oy- /GL /D WIN32 /D NDEBUG /D _CONSOLE /D _LIB /D _UNICODE /D UNICODE /Gm- /EHsc /MD /GS /Gy /fp:precise /Zc:wchar_t /Zc:forScope /Zc:inline /Yu"stdafx.h" /Fp"RELEASE\LINKEDLIST.PCH" /Fo"RELEASE\\" /Fd"RELEASE\VC141.PDB" /Gd /TP /analyze- C:\USERS\KICKY\DOCUMENTS\CPP PROJECTS\DOUBLYLINKEDLISTSTART\LINKEDLIST\LINKEDLIST.CPP
