^C:\USERS\ROBERT\DOCUMENTS\VISUAL STUDIO 2013\PROJECTS\HUFFMANCODINGSTART\BINARYSEARCHTREE\STDAFX.CPP
/c /ZI /nologo /W3 /WX- /sdl /Od /Oy- /D WIN32 /D _DEBUG /D _CONSOLE /D _LIB /D _UNICODE /D UNICODE /Gm /EHsc /RTC1 /MDd /GS /fp:precise /Zc:wchar_t /Zc:forScope /Yc"stdafx.h" /Fp"DEBUG\HUFFMANCODING.PCH" /Fo"DEBUG\\" /Fd"DEBUG\VC120.PDB" /Gd /TP /analyze- C:\USERS\ROBERT\DOCUMENTS\VISUAL STUDIO 2013\PROJECTS\HUFFMANCODINGSTART\BINARYSEARCHTREE\STDAFX.CPP
^C:\USERS\ROBERT\DOCUMENTS\VISUAL STUDIO 2013\PROJECTS\HUFFMANCODINGSTART\BINARYSEARCHTREE\HUFFMANTREE.CPP
/c /ZI /nologo /W3 /WX- /sdl /Od /Oy- /D WIN32 /D _DEBUG /D _CONSOLE /D _LIB /D _UNICODE /D UNICODE /Gm /EHsc /RTC1 /MDd /GS /fp:precise /Zc:wchar_t /Zc:forScope /Yu"stdafx.h" /Fp"DEBUG\HUFFMANCODING.PCH" /Fo"DEBUG\\" /Fd"DEBUG\VC120.PDB" /Gd /TP /analyze- C:\USERS\ROBERT\DOCUMENTS\VISUAL STUDIO 2013\PROJECTS\HUFFMANCODINGSTART\BINARYSEARCHTREE\HUFFMANTREE.CPP
^C:\USERS\ROBERT\DOCUMENTS\VISUAL STUDIO 2013\PROJECTS\HUFFMANCODINGSTART\BINARYSEARCHTREE\HUFFMANTREEMAIN.CPP
/c /ZI /nologo /W3 /WX- /sdl /Od /Oy- /D WIN32 /D _DEBUG /D _CONSOLE /D _LIB /D _UNICODE /D UNICODE /Gm /EHsc /RTC1 /MDd /GS /fp:precise /Zc:wchar_t /Zc:forScope /Yu"stdafx.h" /Fp"DEBUG\HUFFMANCODING.PCH" /Fo"DEBUG\\" /Fd"DEBUG\VC120.PDB" /Gd /TP /analyze- C:\USERS\ROBERT\DOCUMENTS\VISUAL STUDIO 2013\PROJECTS\HUFFMANCODINGSTART\BINARYSEARCHTREE\HUFFMANTREEMAIN.CPP
^C:\USERS\ROBERT\DESKTOP\HUFFMANCODINGSTART\BINARYSEARCHTREE\STDAFX.CPP
/c /ZI /nologo /W3 /WX- /sdl /Od /Oy- /D WIN32 /D _DEBUG /D _CONSOLE /D _LIB /D _UNICODE /D UNICODE /Gm /EHsc /RTC1 /MDd /GS /fp:precise /Zc:wchar_t /Zc:forScope /Yc"stdafx.h" /Fp"DEBUG\HUFFMANCODING.PCH" /Fo"DEBUG\\" /Fd"DEBUG\VC120.PDB" /Gd /TP /analyze- C:\USERS\ROBERT\DESKTOP\HUFFMANCODINGSTART\BINARYSEARCHTREE\STDAFX.CPP
^C:\USERS\ROBERT\DESKTOP\HUFFMANCODINGSTART\BINARYSEARCHTREE\HUFFMANTREE.CPP
/c /ZI /nologo /W3 /WX- /sdl /Od /Oy- /D WIN32 /D _DEBUG /D _CONSOLE /D _LIB /D _UNICODE /D UNICODE /Gm /EHsc /RTC1 /MDd /GS /fp:precise /Zc:wchar_t /Zc:forScope /Yu"stdafx.h" /Fp"DEBUG\HUFFMANCODING.PCH" /Fo"DEBUG\\" /Fd"DEBUG\VC120.PDB" /Gd /TP /analyze- C:\USERS\ROBERT\DESKTOP\HUFFMANCODINGSTART\BINARYSEARCHTREE\HUFFMANTREE.CPP
^C:\USERS\ROBERT\DESKTOP\HUFFMANCODINGSTART\BINARYSEARCHTREE\HUFFMANTREEMAIN.CPP
/c /ZI /nologo /W3 /WX- /sdl /Od /Oy- /D WIN32 /D _DEBUG /D _CONSOLE /D _LIB /D _UNICODE /D UNICODE /Gm /EHsc /RTC1 /MDd /GS /fp:precise /Zc:wchar_t /Zc:forScope /Yu"stdafx.h" /Fp"DEBUG\HUFFMANCODING.PCH" /Fo"DEBUG\\" /Fd"DEBUG\VC120.PDB" /Gd /TP /analyze- C:\USERS\ROBERT\DESKTOP\HUFFMANCODINGSTART\BINARYSEARCHTREE\HUFFMANTREEMAIN.CPP
^C:\USERS\IMSCHULTZ\DOCUMENTS\VISUAL STUDIO 2015\PROJECTS\HUFFMANCODINGSTART\BINARYSEARCHTREE\STDAFX.CPP
/c /ZI /nologo /W3 /WX- /sdl /Od /Oy- /D WIN32 /D _DEBUG /D _CONSOLE /D _LIB /D _UNICODE /D UNICODE /Gm /EHsc /RTC1 /MDd /GS /fp:precise /Zc:wchar_t /Zc:forScope /Zc:inline /Yc"stdafx.h" /Fp"DEBUG\HUFFMANCODING.PCH" /Fo"DEBUG\\" /Fd"DEBUG\VC140.PDB" /Gd /TP /analyze- C:\USERS\IMSCHULTZ\DOCUMENTS\VISUAL STUDIO 2015\PROJECTS\HUFFMANCODINGSTART\BINARYSEARCHTREE\STDAFX.CPP
^C:\USERS\IMSCHULTZ\DOCUMENTS\VISUAL STUDIO 2015\PROJECTS\HUFFMANCODINGSTART\BINARYSEARCHTREE\HUFFMANTREE.CPP
/c /ZI /nologo /W3 /WX- /sdl /Od /Oy- /D WIN32 /D _DEBUG /D _CONSOLE /D _LIB /D _UNICODE /D UNICODE /Gm /EHsc /RTC1 /MDd /GS /fp:precise /Zc:wchar_t /Zc:forScope /Zc:inline /Yu"stdafx.h" /Fp"DEBUG\HUFFMANCODING.PCH" /Fo"DEBUG\\" /Fd"DEBUG\VC140.PDB" /Gd /TP /analyze- C:\USERS\IMSCHULTZ\DOCUMENTS\VISUAL STUDIO 2015\PROJECTS\HUFFMANCODINGSTART\BINARYSEARCHTREE\HUFFMANTREE.CPP
^C:\USERS\IMSCHULTZ\DOCUMENTS\VISUAL STUDIO 2015\PROJECTS\HUFFMANCODINGSTART\BINARYSEARCHTREE\HUFFMANTREEMAIN.CPP
/c /ZI /nologo /W3 /WX- /sdl /Od /Oy- /D WIN32 /D _DEBUG /D _CONSOLE /D _LIB /D _UNICODE /D UNICODE /Gm /EHsc /RTC1 /MDd /GS /fp:precise /Zc:wchar_t /Zc:forScope /Zc:inline /Yu"stdafx.h" /Fp"DEBUG\HUFFMANCODING.PCH" /Fo"DEBUG\\" /Fd"DEBUG\VC140.PDB" /Gd /TP /analyze- C:\USERS\IMSCHULTZ\DOCUMENTS\VISUAL STUDIO 2015\PROJECTS\HUFFMANCODINGSTART\BINARYSEARCHTREE\HUFFMANTREEMAIN.CPP
^C:\USERS\ISAAC\DOCUMENTS\VISUAL STUDIO 2015\PROJECTS\HUFFMANCODINGSTART\BINARYSEARCHTREE\STDAFX.CPP
/c /ZI /nologo /W3 /WX- /sdl /Od /Oy- /D WIN32 /D _DEBUG /D _CONSOLE /D _LIB /D _UNICODE /D UNICODE /Gm /EHsc /RTC1 /MDd /GS /fp:precise /Zc:wchar_t /Zc:forScope /Zc:inline /Yc"stdafx.h" /Fp"DEBUG\HUFFMANCODING.PCH" /Fo"DEBUG\\" /Fd"DEBUG\VC140.PDB" /Gd /TP /analyze- C:\USERS\ISAAC\DOCUMENTS\VISUAL STUDIO 2015\PROJECTS\HUFFMANCODINGSTART\BINARYSEARCHTREE\STDAFX.CPP
^C:\USERS\ISAAC\DOCUMENTS\VISUAL STUDIO 2015\PROJECTS\HUFFMANCODINGSTART\BINARYSEARCHTREE\HUFFMANTREE.CPP
/c /ZI /nologo /W3 /WX- /sdl /Od /Oy- /D WIN32 /D _DEBUG /D _CONSOLE /D _LIB /D _UNICODE /D UNICODE /Gm /EHsc /RTC1 /MDd /GS /fp:precise /Zc:wchar_t /Zc:forScope /Zc:inline /Yu"stdafx.h" /Fp"DEBUG\HUFFMANCODING.PCH" /Fo"DEBUG\\" /Fd"DEBUG\VC140.PDB" /Gd /TP /analyze- C:\USERS\ISAAC\DOCUMENTS\VISUAL STUDIO 2015\PROJECTS\HUFFMANCODINGSTART\BINARYSEARCHTREE\HUFFMANTREE.CPP
^C:\USERS\ISAAC\DOCUMENTS\VISUAL STUDIO 2015\PROJECTS\HUFFMANCODINGSTART\BINARYSEARCHTREE\HUFFMANTREEMAIN.CPP
/c /ZI /nologo /W3 /WX- /sdl /Od /Oy- /D WIN32 /D _DEBUG /D _CONSOLE /D _LIB /D _UNICODE /D UNICODE /Gm /EHsc /RTC1 /MDd /GS /fp:precise /Zc:wchar_t /Zc:forScope /Zc:inline /Yu"stdafx.h" /Fp"DEBUG\HUFFMANCODING.PCH" /Fo"DEBUG\\" /Fd"DEBUG\VC140.PDB" /Gd /TP /analyze- C:\USERS\ISAAC\DOCUMENTS\VISUAL STUDIO 2015\PROJECTS\HUFFMANCODINGSTART\BINARYSEARCHTREE\HUFFMANTREEMAIN.CPP
^C:\USERS\ISAAC\DOCUMENTS\VISUAL STUDIO 2015\PROJECTS\HOMEWORK 2\BINARYSEARCHTREE\STDAFX.CPP
/c /ZI /nologo /W3 /WX- /sdl /Od /Oy- /D WIN32 /D _DEBUG /D _CONSOLE /D _LIB /D _UNICODE /D UNICODE /Gm /EHsc /RTC1 /MDd /GS /fp:precise /Zc:wchar_t /Zc:forScope /Zc:inline /Yc"stdafx.h" /Fp"DEBUG\HUFFMANCODING.PCH" /Fo"DEBUG\\" /Fd"DEBUG\VC140.PDB" /Gd /TP /analyze- C:\USERS\ISAAC\DOCUMENTS\VISUAL STUDIO 2015\PROJECTS\HOMEWORK 2\BINARYSEARCHTREE\STDAFX.CPP
^C:\USERS\ISAAC\DOCUMENTS\VISUAL STUDIO 2015\PROJECTS\HOMEWORK 2\BINARYSEARCHTREE\HUFFMANTREE.CPP
/c /ZI /nologo /W3 /WX- /sdl /Od /Oy- /D WIN32 /D _DEBUG /D _CONSOLE /D _LIB /D _UNICODE /D UNICODE /Gm /EHsc /RTC1 /MDd /GS /fp:precise /Zc:wchar_t /Zc:forScope /Zc:inline /Yu"stdafx.h" /Fp"DEBUG\HUFFMANCODING.PCH" /Fo"DEBUG\\" /Fd"DEBUG\VC140.PDB" /Gd /TP /analyze- C:\USERS\ISAAC\DOCUMENTS\VISUAL STUDIO 2015\PROJECTS\HOMEWORK 2\BINARYSEARCHTREE\HUFFMANTREE.CPP
^C:\USERS\ISAAC\DOCUMENTS\VISUAL STUDIO 2015\PROJECTS\HOMEWORK 2\BINARYSEARCHTREE\HUFFMANTREEMAIN.CPP
/c /ZI /nologo /W3 /WX- /sdl /Od /Oy- /D WIN32 /D _DEBUG /D _CONSOLE /D _LIB /D _UNICODE /D UNICODE /Gm /EHsc /RTC1 /MDd /GS /fp:precise /Zc:wchar_t /Zc:forScope /Zc:inline /Yu"stdafx.h" /Fp"DEBUG\HUFFMANCODING.PCH" /Fo"DEBUG\\" /Fd"DEBUG\VC140.PDB" /Gd /TP /analyze- C:\USERS\ISAAC\DOCUMENTS\VISUAL STUDIO 2015\PROJECTS\HOMEWORK 2\BINARYSEARCHTREE\HUFFMANTREEMAIN.CPP
^C:\USERS\ISAAC\DOCUMENTS\VISUAL STUDIO 2017\PROJECTS\HOMEWORK 2\BINARYSEARCHTREE\STDAFX.CPP
/c /ZI /nologo /W3 /WX- /diagnostics:classic /sdl /Od /Oy- /D WIN32 /D _DEBUG /D _CONSOLE /D _LIB /D _UNICODE /D UNICODE /Gm /EHsc /RTC1 /MDd /GS /fp:precise /Zc:wchar_t /Zc:forScope /Zc:inline /Yc"stdafx.h" /Fp"DEBUG\HUFFMANCODING.PCH" /Fo"DEBUG\\" /Fd"DEBUG\VC141.PDB" /Gd /TP /analyze- C:\USERS\ISAAC\DOCUMENTS\VISUAL STUDIO 2017\PROJECTS\HOMEWORK 2\BINARYSEARCHTREE\STDAFX.CPP
^C:\USERS\ISAAC\DOCUMENTS\VISUAL STUDIO 2017\PROJECTS\HOMEWORK 2\BINARYSEARCHTREE\HUFFMANTREE.CPP
/c /ZI /nologo /W3 /WX- /diagnostics:classic /sdl /Od /Oy- /D WIN32 /D _DEBUG /D _CONSOLE /D _LIB /D _UNICODE /D UNICODE /Gm /EHsc /RTC1 /MDd /GS /fp:precise /Zc:wchar_t /Zc:forScope /Zc:inline /Yu"stdafx.h" /Fp"DEBUG\HUFFMANCODING.PCH" /Fo"DEBUG\\" /Fd"DEBUG\VC141.PDB" /Gd /TP /analyze- C:\USERS\ISAAC\DOCUMENTS\VISUAL STUDIO 2017\PROJECTS\HOMEWORK 2\BINARYSEARCHTREE\HUFFMANTREE.CPP
^C:\USERS\ISAAC\DOCUMENTS\VISUAL STUDIO 2017\PROJECTS\HOMEWORK 2\BINARYSEARCHTREE\HUFFMANTREEMAIN.CPP
/c /ZI /nologo /W3 /WX- /diagnostics:classic /sdl /Od /Oy- /D WIN32 /D _DEBUG /D _CONSOLE /D _LIB /D _UNICODE /D UNICODE /Gm /EHsc /RTC1 /MDd /GS /fp:precise /Zc:wchar_t /Zc:forScope /Zc:inline /Yu"stdafx.h" /Fp"DEBUG\HUFFMANCODING.PCH" /Fo"DEBUG\\" /Fd"DEBUG\VC141.PDB" /Gd /TP /analyze- C:\USERS\ISAAC\DOCUMENTS\VISUAL STUDIO 2017\PROJECTS\HOMEWORK 2\BINARYSEARCHTREE\HUFFMANTREEMAIN.CPP
^C:\USERS\KICKY\DOCUMENTS\CPP PROJECTS\HOMEWORK 2\BINARYSEARCHTREE\STDAFX.CPP
/c /ZI /nologo /W3 /WX- /diagnostics:classic /sdl /Od /Oy- /D WIN32 /D _DEBUG /D _CONSOLE /D _LIB /D _UNICODE /D UNICODE /Gm /EHsc /RTC1 /MDd /GS /fp:precise /Zc:wchar_t /Zc:forScope /Zc:inline /Yc"stdafx.h" /Fp"DEBUG\HUFFMANCODING.PCH" /Fo"DEBUG\\" /Fd"DEBUG\VC141.PDB" /Gd /TP /analyze- C:\USERS\KICKY\DOCUMENTS\CPP PROJECTS\HOMEWORK 2\BINARYSEARCHTREE\STDAFX.CPP
^C:\USERS\KICKY\DOCUMENTS\CPP PROJECTS\HOMEWORK 2\BINARYSEARCHTREE\HUFFMANTREE.CPP
/c /ZI /nologo /W3 /WX- /diagnostics:classic /sdl /Od /Oy- /D WIN32 /D _DEBUG /D _CONSOLE /D _LIB /D _UNICODE /D UNICODE /Gm /EHsc /RTC1 /MDd /GS /fp:precise /Zc:wchar_t /Zc:forScope /Zc:inline /Yu"stdafx.h" /Fp"DEBUG\HUFFMANCODING.PCH" /Fo"DEBUG\\" /Fd"DEBUG\VC141.PDB" /Gd /TP /analyze- C:\USERS\KICKY\DOCUMENTS\CPP PROJECTS\HOMEWORK 2\BINARYSEARCHTREE\HUFFMANTREE.CPP
^C:\USERS\KICKY\DOCUMENTS\CPP PROJECTS\HOMEWORK 2\BINARYSEARCHTREE\HUFFMANTREEMAIN.CPP
/c /ZI /nologo /W3 /WX- /diagnostics:classic /sdl /Od /Oy- /D WIN32 /D _DEBUG /D _CONSOLE /D _LIB /D _UNICODE /D UNICODE /Gm /EHsc /RTC1 /MDd /GS /fp:precise /Zc:wchar_t /Zc:forScope /Zc:inline /Yu"stdafx.h" /Fp"DEBUG\HUFFMANCODING.PCH" /Fo"DEBUG\\" /Fd"DEBUG\VC141.PDB" /Gd /TP /analyze- C:\USERS\KICKY\DOCUMENTS\CPP PROJECTS\HOMEWORK 2\BINARYSEARCHTREE\HUFFMANTREEMAIN.CPP
