^C:\USERS\ISAAC\DOCUMENTS\VISUAL STUDIO 2017\PROJECTS\HOMEWORK 2\BINARYSEARCHTREE\STDAFX.CPP
C:\USERS\ISAAC\DOCUMENTS\VISUAL STUDIO 2017\PROJECTS\HOMEWORK 2\BINARYSEARCHTREE\RELEASE\HUFFMANCODING.PCH
C:\USERS\ISAAC\DOCUMENTS\VISUAL STUDIO 2017\PROJECTS\HOMEWORK 2\BINARYSEARCHTREE\RELEASE\VC141.PDB
C:\USERS\ISAAC\DOCUMENTS\VISUAL STUDIO 2017\PROJECTS\HOMEWORK 2\BINARYSEARCHTREE\RELEASE\STDAFX.OBJ
^C:\USERS\ISAAC\DOCUMENTS\VISUAL STUDIO 2017\PROJECTS\HOMEWORK 2\BINARYSEARCHTREE\HUFFMANTREE.CPP|C:\USERS\ISAAC\DOCUMENTS\VISUAL STUDIO 2017\PROJECTS\HOMEWORK 2\BINARYSEARCHTREE\HUFFMANTREEMAIN.CPP
C:\USERS\ISAAC\DOCUMENTS\VISUAL STUDIO 2017\PROJECTS\HOMEWORK 2\BINARYSEARCHTREE\RELEASE\VC141.PDB
C:\USERS\ISAAC\DOCUMENTS\VISUAL STUDIO 2017\PROJECTS\HOMEWORK 2\BINARYSEARCHTREE\RELEASE\HUFFMANTREEMAIN.OBJ
C:\USERS\ISAAC\DOCUMENTS\VISUAL STUDIO 2017\PROJECTS\HOMEWORK 2\BINARYSEARCHTREE\RELEASE\HUFFMANTREE.OBJ
^C:\USERS\ISAAC\DOCUMENTS\VISUAL STUDIO 2017\PROJECTS\HOMEWORK 2\BINARYSEARCHTREE\HUFFMANTREE.CPP
C:\USERS\ISAAC\DOCUMENTS\VISUAL STUDIO 2017\PROJECTS\HOMEWORK 2\BINARYSEARCHTREE\RELEASE\VC141.PDB
^C:\USERS\ISAAC\DOCUMENTS\VISUAL STUDIO 2017\PROJECTS\HOMEWORK 2\BINARYSEARCHTREE\HUFFMANTREEMAIN.CPP
C:\USERS\ISAAC\DOCUMENTS\VISUAL STUDIO 2017\PROJECTS\HOMEWORK 2\BINARYSEARCHTREE\RELEASE\VC141.PDB
