^C:\USERS\ROBERT\DOCUMENTS\VISUAL STUDIO 2013\PROJECTS\BINARYSEARCHTREE\BINARYSEARCHTREE\STDAFX.CPP
C:\USERS\ROBERT\DOCUMENTS\VISUAL STUDIO 2013\PROJECTS\BINARYSEARCHTREE\BINARYSEARCHTREE\DEBUG\BINARYSEARCHTREE.PCH
C:\USERS\ROBERT\DOCUMENTS\VISUAL STUDIO 2013\PROJECTS\BINARYSEARCHTREE\BINARYSEARCHTREE\DEBUG\VC120.PDB
C:\USERS\ROBERT\DOCUMENTS\VISUAL STUDIO 2013\PROJECTS\BINARYSEARCHTREE\BINARYSEARCHTREE\DEBUG\VC120.IDB
C:\USERS\ROBERT\DOCUMENTS\VISUAL STUDIO 2013\PROJECTS\BINARYSEARCHTREE\BINARYSEARCHTREE\DEBUG\STDAFX.OBJ
^C:\USERS\ROBERT\DOCUMENTS\VISUAL STUDIO 2013\PROJECTS\BINARYSEARCHTREE\BINARYSEARCHTREE\BINARYSEARCHTREE.CPP|C:\USERS\ROBERT\DOCUMENTS\VISUAL STUDIO 2013\PROJECTS\BINARYSEARCHTREE\BINARYSEARCHTREE\COMPUTERSCIENTIST.CPP
C:\USERS\ROBERT\DOCUMENTS\VISUAL STUDIO 2013\PROJECTS\BINARYSEARCHTREE\BINARYSEARCHTREE\DEBUG\VC120.PDB
C:\USERS\ROBERT\DOCUMENTS\VISUAL STUDIO 2013\PROJECTS\BINARYSEARCHTREE\BINARYSEARCHTREE\DEBUG\VC120.IDB
C:\USERS\ROBERT\DOCUMENTS\VISUAL STUDIO 2013\PROJECTS\BINARYSEARCHTREE\BINARYSEARCHTREE\DEBUG\COMPUTERSCIENTIST.OBJ
^C:\USERS\ROBERT\DOCUMENTS\VISUAL STUDIO 2013\PROJECTS\BINARYSEARCHTREE\BINARYSEARCHTREE\BINARYSEARCHTREE.CPP
C:\USERS\ROBERT\DOCUMENTS\VISUAL STUDIO 2013\PROJECTS\BINARYSEARCHTREE\BINARYSEARCHTREE\DEBUG\VC120.PDB
C:\USERS\ROBERT\DOCUMENTS\VISUAL STUDIO 2013\PROJECTS\BINARYSEARCHTREE\BINARYSEARCHTREE\DEBUG\VC120.IDB
C:\USERS\ROBERT\DOCUMENTS\VISUAL STUDIO 2013\PROJECTS\BINARYSEARCHTREE\BINARYSEARCHTREE\DEBUG\BINARYSEARCHTREE.OBJ
^C:\USERS\ROBERT\DOCUMENTS\VISUAL STUDIO 2013\PROJECTS\BINARYSEARCHTREE\BINARYSEARCHTREE\COMPUTERSCIENTIST.CPP
C:\USERS\ROBERT\DOCUMENTS\VISUAL STUDIO 2013\PROJECTS\BINARYSEARCHTREE\BINARYSEARCHTREE\DEBUG\VC120.PDB
^C:\USERS\ROBERT\DOCUMENTS\VISUAL STUDIO 2013\PROJECTS\BINARYSEARCHTREE WITHFIND\BINARYSEARCHTREE\STDAFX.CPP
C:\USERS\ROBERT\DOCUMENTS\VISUAL STUDIO 2013\PROJECTS\BINARYSEARCHTREE WITHFIND\BINARYSEARCHTREE\DEBUG\BINARYSEARCHTREE.PCH
C:\USERS\ROBERT\DOCUMENTS\VISUAL STUDIO 2013\PROJECTS\BINARYSEARCHTREE WITHFIND\BINARYSEARCHTREE\DEBUG\VC120.PDB
C:\USERS\ROBERT\DOCUMENTS\VISUAL STUDIO 2013\PROJECTS\BINARYSEARCHTREE WITHFIND\BINARYSEARCHTREE\DEBUG\VC120.IDB
C:\USERS\ROBERT\DOCUMENTS\VISUAL STUDIO 2013\PROJECTS\BINARYSEARCHTREE WITHFIND\BINARYSEARCHTREE\DEBUG\STDAFX.OBJ
^C:\USERS\ROBERT\DOCUMENTS\VISUAL STUDIO 2013\PROJECTS\BINARYSEARCHTREE WITHFIND\BINARYSEARCHTREE\BINARYSEARCHTREE.CPP|C:\USERS\ROBERT\DOCUMENTS\VISUAL STUDIO 2013\PROJECTS\BINARYSEARCHTREE WITHFIND\BINARYSEARCHTREE\COMPUTERSCIENTIST.CPP
C:\USERS\ROBERT\DOCUMENTS\VISUAL STUDIO 2013\PROJECTS\BINARYSEARCHTREE WITHFIND\BINARYSEARCHTREE\DEBUG\VC120.PDB
C:\USERS\ROBERT\DOCUMENTS\VISUAL STUDIO 2013\PROJECTS\BINARYSEARCHTREE WITHFIND\BINARYSEARCHTREE\DEBUG\VC120.IDB
C:\USERS\ROBERT\DOCUMENTS\VISUAL STUDIO 2013\PROJECTS\BINARYSEARCHTREE WITHFIND\BINARYSEARCHTREE\DEBUG\COMPUTERSCIENTIST.OBJ
^C:\USERS\ROBERT\DOCUMENTS\VISUAL STUDIO 2013\PROJECTS\BINARYSEARCHTREE WITHFIND\BINARYSEARCHTREE\BINARYSEARCHTREE.CPP
C:\USERS\ROBERT\DOCUMENTS\VISUAL STUDIO 2013\PROJECTS\BINARYSEARCHTREE WITHFIND\BINARYSEARCHTREE\DEBUG\VC120.PDB
C:\USERS\ROBERT\DOCUMENTS\VISUAL STUDIO 2013\PROJECTS\BINARYSEARCHTREE WITHFIND\BINARYSEARCHTREE\DEBUG\VC120.IDB
C:\USERS\ROBERT\DOCUMENTS\VISUAL STUDIO 2013\PROJECTS\BINARYSEARCHTREE WITHFIND\BINARYSEARCHTREE\DEBUG\BINARYSEARCHTREE.OBJ
^C:\USERS\ROBERT\DOCUMENTS\VISUAL STUDIO 2013\PROJECTS\BINARYSEARCHTREE WITHFIND\BINARYSEARCHTREE\COMPUTERSCIENTIST.CPP
C:\USERS\ROBERT\DOCUMENTS\VISUAL STUDIO 2013\PROJECTS\BINARYSEARCHTREE WITHFIND\BINARYSEARCHTREE\DEBUG\VC120.PDB
^C:\USERS\ROBERT\DOCUMENTS\VISUAL STUDIO 2013\PROJECTS\HUFFMANCODINGSTART\BINARYSEARCHTREE\STDAFX.CPP
C:\USERS\ROBERT\DOCUMENTS\VISUAL STUDIO 2013\PROJECTS\HUFFMANCODINGSTART\BINARYSEARCHTREE\DEBUG\BINARYSEARCHTREE.PCH
C:\USERS\ROBERT\DOCUMENTS\VISUAL STUDIO 2013\PROJECTS\HUFFMANCODINGSTART\BINARYSEARCHTREE\DEBUG\VC120.PDB
C:\USERS\ROBERT\DOCUMENTS\VISUAL STUDIO 2013\PROJECTS\HUFFMANCODINGSTART\BINARYSEARCHTREE\DEBUG\VC120.IDB
C:\USERS\ROBERT\DOCUMENTS\VISUAL STUDIO 2013\PROJECTS\HUFFMANCODINGSTART\BINARYSEARCHTREE\DEBUG\STDAFX.OBJ
^C:\USERS\ROBERT\DOCUMENTS\VISUAL STUDIO 2013\PROJECTS\HUFFMANCODINGSTART\BINARYSEARCHTREE\HUFFMANTREE.CPP
C:\USERS\ROBERT\DOCUMENTS\VISUAL STUDIO 2013\PROJECTS\HUFFMANCODINGSTART\BINARYSEARCHTREE\DEBUG\VC120.PDB
C:\USERS\ROBERT\DOCUMENTS\VISUAL STUDIO 2013\PROJECTS\HUFFMANCODINGSTART\BINARYSEARCHTREE\DEBUG\VC120.IDB
C:\USERS\ROBERT\DOCUMENTS\VISUAL STUDIO 2013\PROJECTS\HUFFMANCODINGSTART\BINARYSEARCHTREE\DEBUG\HUFFMANTREE.OBJ
^C:\USERS\ROBERT\DOCUMENTS\VISUAL STUDIO 2013\PROJECTS\HUFFMANCODINGSTART\BINARYSEARCHTREE\HUFFMANTREEMAIN.CPP
C:\USERS\ROBERT\DOCUMENTS\VISUAL STUDIO 2013\PROJECTS\HUFFMANCODINGSTART\BINARYSEARCHTREE\DEBUG\VC120.PDB
C:\USERS\ROBERT\DOCUMENTS\VISUAL STUDIO 2013\PROJECTS\HUFFMANCODINGSTART\BINARYSEARCHTREE\DEBUG\VC120.IDB
C:\USERS\ROBERT\DOCUMENTS\VISUAL STUDIO 2013\PROJECTS\HUFFMANCODINGSTART\BINARYSEARCHTREE\DEBUG\HUFFMANTREEMAIN.OBJ
^C:\USERS\ROBERT\DOCUMENTS\VISUAL STUDIO 2013\PROJECTS\HUFFMANCODINGSTART\BINARYSEARCHTREE\HUFFMANTREE.CPP|C:\USERS\ROBERT\DOCUMENTS\VISUAL STUDIO 2013\PROJECTS\HUFFMANCODINGSTART\BINARYSEARCHTREE\HUFFMANTREEMAIN.CPP
C:\USERS\ROBERT\DOCUMENTS\VISUAL STUDIO 2013\PROJECTS\HUFFMANCODINGSTART\BINARYSEARCHTREE\DEBUG\VC120.PDB
C:\USERS\ROBERT\DOCUMENTS\VISUAL STUDIO 2013\PROJECTS\HUFFMANCODINGSTART\BINARYSEARCHTREE\DEBUG\VC120.IDB
C:\USERS\ROBERT\DOCUMENTS\VISUAL STUDIO 2013\PROJECTS\HUFFMANCODINGSTART\BINARYSEARCHTREE\DEBUG\HUFFMANTREEMAIN.OBJ
