^C:\USERS\ROBERT\DOCUMENTS\VISUAL STUDIO 2013\PROJECTS\BINARYSEARCHTREE\BINARYSEARCHTREE\DEBUG\BINARYSEARCHTREE.OBJ|C:\USERS\ROBERT\DOCUMENTS\VISUAL STUDIO 2013\PROJECTS\BINARYSEARCHTREE\BINARYSEARCHTREE\DEBUG\COMPUTERSCIENTIST.OBJ|C:\USERS\ROBERT\DOCUMENTS\VISUAL STUDIO 2013\PROJECTS\BINARYSEARCHTREE\BINARYSEARCHTREE\DEBUG\STDAFX.OBJ
/OUT:"C:\USERS\ROBERT\DOCUMENTS\VISUAL STUDIO 2013\PROJECTS\BINARYSEARCHTREE\DEBUG\BINARYSEARCHTREE.EXE" /INCREMENTAL /NOLOGO kernel32.lib user32.lib gdi32.lib winspool.lib comdlg32.lib advapi32.lib shell32.lib ole32.lib oleaut32.lib uuid.lib odbc32.lib odbccp32.lib /MANIFEST /MANIFESTUAC:"level='asInvoker' uiAccess='false'" /manifest:embed /DEBUG /PDB:"C:\USERS\ROBERT\DOCUMENTS\VISUAL STUDIO 2013\PROJECTS\BINARYSEARCHTREE\DEBUG\BINARYSEARCHTREE.PDB" /SUBSYSTEM:CONSOLE /TLBID:1 /DYNAMICBASE /NXCOMPAT /IMPLIB:"C:\USERS\ROBERT\DOCUMENTS\VISUAL STUDIO 2013\PROJECTS\BINARYSEARCHTREE\DEBUG\BINARYSEARCHTREE.LIB" /MACHINE:X86 DEBUG\BINARYSEARCHTREE.OBJDEBUG\COMPUTERSCIENTIST.OBJDEBUG\STDAFX.OBJ
^C:\USERS\ROBERT\DOCUMENTS\VISUAL STUDIO 2013\PROJECTS\BINARYSEARCHTREE WITHFIND\BINARYSEARCHTREE\DEBUG\BINARYSEARCHTREE.OBJ|C:\USERS\ROBERT\DOCUMENTS\VISUAL STUDIO 2013\PROJECTS\BINARYSEARCHTREE WITHFIND\BINARYSEARCHTREE\DEBUG\COMPUTERSCIENTIST.OBJ|C:\USERS\ROBERT\DOCUMENTS\VISUAL STUDIO 2013\PROJECTS\BINARYSEARCHTREE WITHFIND\BINARYSEARCHTREE\DEBUG\STDAFX.OBJ
/OUT:"C:\USERS\ROBERT\DOCUMENTS\VISUAL STUDIO 2013\PROJECTS\BINARYSEARCHTREE WITHFIND\DEBUG\BINARYSEARCHTREE.EXE" /INCREMENTAL /NOLOGO kernel32.lib user32.lib gdi32.lib winspool.lib comdlg32.lib advapi32.lib shell32.lib ole32.lib oleaut32.lib uuid.lib odbc32.lib odbccp32.lib /MANIFEST /MANIFESTUAC:"level='asInvoker' uiAccess='false'" /manifest:embed /DEBUG /PDB:"C:\USERS\ROBERT\DOCUMENTS\VISUAL STUDIO 2013\PROJECTS\BINARYSEARCHTREE WITHFIND\DEBUG\BINARYSEARCHTREE.PDB" /SUBSYSTEM:CONSOLE /TLBID:1 /DYNAMICBASE /NXCOMPAT /IMPLIB:"C:\USERS\ROBERT\DOCUMENTS\VISUAL STUDIO 2013\PROJECTS\BINARYSEARCHTREE WITHFIND\DEBUG\BINARYSEARCHTREE.LIB" /MACHINE:X86 DEBUG\BINARYSEARCHTREE.OBJDEBUG\COMPUTERSCIENTIST.OBJDEBUG\STDAFX.OBJ
^C:\USERS\ROBERT\DOCUMENTS\VISUAL STUDIO 2013\PROJECTS\HUFFMANCODINGSTART\BINARYSEARCHTREE\DEBUG\HUFFMANTREE.OBJ|C:\USERS\ROBERT\DOCUMENTS\VISUAL STUDIO 2013\PROJECTS\HUFFMANCODINGSTART\BINARYSEARCHTREE\DEBUG\HUFFMANTREEMAIN.OBJ|C:\USERS\ROBERT\DOCUMENTS\VISUAL STUDIO 2013\PROJECTS\HUFFMANCODINGSTART\BINARYSEARCHTREE\DEBUG\STDAFX.OBJ
/OUT:"C:\USERS\ROBERT\DOCUMENTS\VISUAL STUDIO 2013\PROJECTS\HUFFMANCODINGSTART\DEBUG\BINARYSEARCHTREE.EXE" /INCREMENTAL /NOLOGO kernel32.lib user32.lib gdi32.lib winspool.lib comdlg32.lib advapi32.lib shell32.lib ole32.lib oleaut32.lib uuid.lib odbc32.lib odbccp32.lib /MANIFEST /MANIFESTUAC:"level='asInvoker' uiAccess='false'" /manifest:embed /DEBUG /PDB:"C:\USERS\ROBERT\DOCUMENTS\VISUAL STUDIO 2013\PROJECTS\HUFFMANCODINGSTART\DEBUG\BINARYSEARCHTREE.PDB" /SUBSYSTEM:CONSOLE /TLBID:1 /DYNAMICBASE /NXCOMPAT /IMPLIB:"C:\USERS\ROBERT\DOCUMENTS\VISUAL STUDIO 2013\PROJECTS\HUFFMANCODINGSTART\DEBUG\BINARYSEARCHTREE.LIB" /MACHINE:X86 DEBUG\HUFFMANTREE.OBJDEBUG\HUFFMANTREEMAIN.OBJDEBUG\STDAFX.OBJ
